<?xml version="1.0" encoding="UTF-8"?>
<svg width="88.701mm" height="84.296mm" version="1.1" viewBox="0 0 88.701 84.296" xmlns="http://www.w3.org/2000/svg" xmlns:cc="http://creativecommons.org/ns#" xmlns:dc="http://purl.org/dc/elements/1.1/" xmlns:rdf="http://www.w3.org/1999/02/22-rdf-syntax-ns#">
 <metadata>
  <rdf:RDF>
   <cc:Work rdf:about="">
    <dc:format>image/svg+xml</dc:format>
    <dc:type rdf:resource="http://purl.org/dc/dcmitype/StillImage"/>
    <dc:title/>
   </cc:Work>
  </rdf:RDF>
 </metadata>
 <g transform="translate(-61.43 -59.664)">
  <g transform="rotate(227.99 99.377 120.75)">
   <path transform="scale(.26458)" d="m452.97 357.1c-42.926-0.41829-55.718 45.85-38.583 85.636l7.6538 30.59 8.6024 28.159c-5.8e-4 50.258 29.64 82.753 79.899 82.754 27.877 3.2e-4 71.201-11.946 87.508-29.896 13.092-14.411-18.781-20.892-18.781-43.273-4.2e-4 -37.281-22.74-70.79-57.383-84.562 5e-3 -0.30272 7e-3 -0.60546 8e-3 -0.90821-9.4e-4 -37.832-30.67-68.5-68.502-68.5-0.14062-4.4e-4 -0.28125-4.4e-4 -0.42188 0zm-140.4 41.757c35.72-23.81 71.719 7.9477 79.112 50.631l10.308 29.801 8.185 28.284c27.467 42.089 20.402 85.501-21.687 112.97-23.346 15.235-66.156 28.907-89.622 22.787-18.84-4.9142 4.3108-27.759-7.9206-46.503-20.373-31.221-19.643-71.711 1.8423-102.18-0.16962-0.25079-0.33674-0.50322-0.50303-0.75622-20.674-31.683-11.75-74.127 19.932-94.802 0.11752-0.0772 0.23529-0.15407 0.35331-0.23056z" fill="#c00" stop-color="#000000" stroke-width=".5"/>
   <g>
    <path transform="scale(.26458)" d="m386.76 391.26c43.872 21.546 35.826 99.891 64.479 181.95 2.59 2.1476 4.9004 8.9643 3.7324 9.6738-0.64021-0.16588-4.221-3.8841-4.3359-8.9746l-11.65-24.334c-2.1484-2.5755-3.8231-1.3481-5.6054-1.4361-1.4445 1.0477-3.5178 0.93501-3.9095 4.266l3.5418 26.746c2.6858 4.3259 1.719 9.3967 1.2735 9.8855-1.3659 0.0442-3.1564-6.9272-2.161-10.141-20.847-84.376-70.401-145.59-45.435-187.61" fill="#674e37" stop-color="#000000" stroke-width=".5"/>
    <g stroke-width=".13229">
     <path d="m142.15 141.18c0 2.6011-1.9941 4.7096-4.454 4.7096-2.4599 0-4.454-2.1086-4.454-4.7096 0-2.6011 1.9941-4.7096 4.454-4.7096 2.4599 0 4.454 2.1086 4.454 4.7096zm-52.613 15.648c1.4215 2.1783 4.2438 2.8543 6.3039 1.51 2.0601-1.3443 2.5777-4.2 1.1562-6.3783-1.4215-2.1783-4.2438-2.8543-6.3039-1.51-2.0601 1.3443-2.5777 4.2-1.1562 6.3783z" fill="#fc0" stop-color="#000000"/>
     <path d="m141.63 140.94c0 1.5608-1.6657 2.8261-3.7204 2.8261-2.0547 0-3.7204-1.2653-3.7204-2.8261s1.6657-2.8261 3.7204-2.8261c2.0547 0 3.7204 1.2653 3.7204 2.8261zm-51.775 15.399c0.85299 1.3071 2.9394 1.4565 4.6601 0.33359 1.7207-1.1229 2.4242-3.0928 1.5712-4.4s-2.9394-1.4565-4.6601-0.33359c-1.7207 1.1229-2.4242 3.0928-1.5712 4.4z" fill="#674e37" stop-color="#000000"/>
     <path d="m126.95 106.86c0 1.7584-1.6798 3.1839-3.7519 3.1839-2.0721 0-3.7519-1.4255-3.7519-3.1839s1.6798-3.1839 3.7519-3.1839c2.0721 0 3.7519 1.4255 3.7519 3.1839zm-43.436 12.919c0.96098 1.4726 3.1467 1.7484 4.882 0.61601s2.363-3.2442 1.402-4.7168c-0.96098-1.4726-3.1467-1.7484-4.882-0.616s-2.363 3.2442-1.402 4.7168z" fill="#039" stop-color="#000000"/>
     <path d="m124.85 106.86c0 0.94775-0.73838 1.716-1.6492 1.716-0.91084 0-1.6492-0.76829-1.6492-1.716 0-0.94774 0.73838-1.716 1.6492-1.716 0.91085 0 1.6492 0.7683 1.6492 1.716zm-39.572 11.77c0.51794 0.7937 1.5562 1.0336 2.319 0.53581 0.76279-0.49777 0.96128-1.5447 0.44334-2.3384-0.51794-0.7937-1.5562-1.0336-2.319-0.53581-0.76279 0.49777-0.96128 1.5447-0.44334 2.3384z" fill="#fc0" stop-color="#000000"/>
    </g>
   </g>
   <path d="m138.25 112.99c-5.1568-3.0276-17.72 2.1255-24.538 12.768m-36.306 5.3278c2.664-5.3536 16.001-7.904 27.528-2.7171" fill="none" stop-color="#000000" stroke="#000" stroke-width=".13229"/>
   <path d="m116.99 144.79c0 0.42456-0.34417 0.76872-0.76872 0.76872s-0.76872-0.34416-0.76872-0.76872c0-0.42455 0.34417-0.76871 0.76872-0.76871s0.76872 0.34416 0.76872 0.76871zm-4.4111 1.312c0.23202 0.35555 0.70833 0.45569 1.0639 0.22367 0.35554-0.23202 0.45568-0.70833 0.22366-1.0639-0.23202-0.35554-0.70833-0.45568-1.0639-0.22366-0.35555 0.23202-0.45568 0.70833-0.22367 1.0639z" stop-color="#000000" stroke="#000" stroke-width=".13229"/>
   <path d="m116.35 144.47c0 0.17228-0.1281 0.31194-0.28613 0.31194s-0.28613-0.13966-0.28613-0.31194 0.1281-0.31195 0.28613-0.31195 0.28613 0.13967 0.28613 0.31195zm-3.3974 1.0104c0.0941 0.14428 0.27776 0.19123 0.4101 0.10487 0.13234-0.0864 0.1633-0.27334 0.0691-0.41762-0.0941-0.14428-0.27776-0.19123-0.4101-0.10487-0.13234 0.0864-0.16329 0.27334-0.0691 0.41762z" fill="#fff" stop-color="#000000"/>
  </g>
 </g>
</svg>
